PCBNEW-LibModule-V1  2023-01-08 17:27:42
# encoding utf-8
Units mm
$INDEX
BGA4C35P2X2_64X64X33
$EndINDEX
$MODULE BGA4C35P2X2_64X64X33
Po 0 0 0 15 63bafd0e 00000000 ~~
Li BGA4C35P2X2_64X64X33
Cd WLCSP4, 0.64x0.64_
Kw Integrated Circuit
Sc 0
At SMD
AR 
Op 0 0 0
T0 0 0 1.27 1.27 0 0.254 N V 21 N "IC**"
T1 0 0 1.27 1.27 0 0.254 N I 21 N "BGA4C35P2X2_64X64X33"
DS -0.835 -0.835 0.835 -0.835 0.05 24
DS 0.835 -0.835 0.835 0.835 0.05 24
DS 0.835 0.835 -0.835 0.835 0.05 24
DS -0.835 0.835 -0.835 -0.835 0.05 24
DS -0.32 -0.32 0.32 -0.32 0.1 24
DS 0.32 -0.32 0.32 0.32 0.1 24
DS 0.32 0.32 -0.32 0.32 0.1 24
DS -0.32 0.32 -0.32 -0.32 0.1 24
DS -0.32 -0.152 -0.152 -0.32 0.1 24
DS -0.175 -0.629 0.629 -0.629 0.2 21
DS 0.629 -0.629 0.629 0.629 0.2 21
DS 0.629 0.629 -0.629 0.629 0.2 21
DS -0.629 0.629 -0.629 -0.175 0.2 21
DS -0.629 -0.175 -0.175 -0.629 0.2 21
DC -0.629 -0.629 -0.529 -0.629 0.254 21
$PAD
Po -0.175 -0.175
Sh "A1" C 0.208 0.208 0 0 900
At SMD N 00888000
Ne 0 ""
$EndPAD
$PAD
Po 0.175 -0.175
Sh "A2" C 0.208 0.208 0 0 900
At SMD N 00888000
Ne 0 ""
$EndPAD
$PAD
Po -0.175 0.175
Sh "B1" C 0.208 0.208 0 0 900
At SMD N 00888000
Ne 0 ""
$EndPAD
$PAD
Po 0.175 0.175
Sh "B2" C 0.208 0.208 0 0 900
At SMD N 00888000
Ne 0 ""
$EndPAD
$EndMODULE BGA4C35P2X2_64X64X33
$EndLIBRARY
